\relax 
\newlabel{eqn:convergence}{{1}{1}}
\@writefile{lof}{\contentsline {figure}{\numberline {1}{\ignorespaces Theoretical convergence rate compared to the actual convergence rate for the element $a_{2,1}$ in a $10 \times 10$ random matrix with known eignevalues. }}{2}\protected@file@percent }
\newlabel{p1}{{1}{2}}
\@writefile{lot}{\contentsline {table}{\numberline {1}{\ignorespaces Comparison of comparison of basic QR iteration, and QR iteration with initial reduction to Hessenberg form and simple shifts}}{2}\protected@file@percent }
\newlabel{table:p1a}{{1}{2}}
\@writefile{lof}{\contentsline {figure}{\numberline {2}{\ignorespaces Lanczos method for a small symmetric matrix (black stars) with exact solution (blue stars) compared to the power method (red stars).}}{3}\protected@file@percent }
\newlabel{p2}{{2}{3}}
\@writefile{lof}{\contentsline {figure}{\numberline {3}{\ignorespaces Power method with good eigenvalues but poor initial guess}}{4}\protected@file@percent }
\newlabel{p2a}{{3}{4}}
\@writefile{lof}{\contentsline {figure}{\numberline {4}{\ignorespaces Power method with non-unique largest eigenvalue in absolute value}}{4}\protected@file@percent }
\newlabel{p2b}{{4}{4}}
\@writefile{lof}{\contentsline {figure}{\numberline {5}{\ignorespaces Fit to smoothed data without noise}}{5}\protected@file@percent }
\newlabel{p3a}{{5}{5}}
\@writefile{lof}{\contentsline {figure}{\numberline {6}{\ignorespaces Fit to smoothed data with noise}}{5}\protected@file@percent }
\newlabel{p3b}{{6}{5}}
\@writefile{lot}{\contentsline {table}{\numberline {2}{\ignorespaces Least squares results using truncated SVD for different tolerances and noise levels}}{5}\protected@file@percent }
\newlabel{t3}{{2}{5}}
\@writefile{lof}{\contentsline {figure}{\numberline {7}{\ignorespaces $p=3$}}{6}\protected@file@percent }
\newlabel{fig:p4a}{{7}{6}}
\@writefile{lof}{\contentsline {figure}{\numberline {8}{\ignorespaces $p=4$}}{6}\protected@file@percent }
\newlabel{fig:p4b}{{8}{6}}
\newlabel{eqn:4a}{{3}{6}}
\@writefile{lot}{\contentsline {table}{\numberline {3}{\ignorespaces Comparison of error and $k$}}{7}\protected@file@percent }
\newlabel{tab:4a}{{3}{7}}
